<svg width="40" height="38" viewBox="0 0 40 38" fill="none" xmlns="http://www.w3.org/2000/svg">
<g clip-path="url(#clip0)">
<path d="M1.225 24.4036H0V19.8276H1.225V24.4036ZM1.225 26.2036H0V30.7796H1.225V26.2036ZM1.225 32.6176H0V37.1946H1.225V32.6176ZM1.225 13.4466H0V18.0236H1.225V13.4466ZM1.225 7.06859H0V11.6456H1.225V7.06859ZM1.225 0.690591H0V5.26859H1.225V0.690591ZM21.725 22.1316C21.725 21.5614 21.5559 21.004 21.2391 20.5299C20.9223 20.0558 20.4721 19.6863 19.9453 19.468C19.4185 19.2498 18.8388 19.1927 18.2795 19.304C17.7203 19.4152 17.2066 19.6898 16.8034 20.093C16.4002 20.4962 16.1256 21.0099 16.0144 21.5691C15.9032 22.1284 15.9603 22.7081 16.1785 23.2349C16.3967 23.7617 16.7662 24.2119 17.2403 24.5287C17.7144 24.8455 18.2718 25.0146 18.842 25.0146C19.6065 25.0138 20.3395 24.7102 20.8808 24.1703C21.422 23.6304 21.7274 22.8981 21.73 22.1336L21.725 22.1316ZM20.536 22.1316C20.5367 22.3495 20.4942 22.5654 20.4111 22.7669C20.3281 22.9683 20.2059 23.1514 20.0519 23.3054C19.8978 23.4595 19.7147 23.5816 19.5133 23.6647C19.3118 23.7478 19.0959 23.7903 18.878 23.7896C18.4454 23.779 18.0342 23.5997 17.732 23.29C17.4298 22.9803 17.2607 22.5648 17.2607 22.1321C17.2607 21.6994 17.4298 21.2839 17.732 20.9742C18.0342 20.6645 18.4454 20.4852 18.878 20.4746C19.0964 20.4733 19.3129 20.5152 19.515 20.5981C19.7171 20.681 19.9008 20.803 20.0554 20.9573C20.2101 21.1116 20.3326 21.295 20.4159 21.4969C20.4993 21.6988 20.5418 21.9152 20.541 22.1336L20.536 22.1316ZM21.725 28.5096C21.725 27.9394 21.5559 27.382 21.2391 26.9079C20.9223 26.4338 20.4721 26.0643 19.9453 25.846C19.4185 25.6278 18.8388 25.5707 18.2795 25.682C17.7203 25.7932 17.2066 26.0678 16.8034 26.471C16.4002 26.8742 16.1256 27.3879 16.0144 27.9471C15.9032 28.5064 15.9603 29.0861 16.1785 29.6129C16.3967 30.1397 16.7662 30.5899 17.2403 30.9067C17.7144 31.2235 18.2718 31.3926 18.842 31.3926C19.6065 31.3918 20.3395 31.0882 20.8808 30.5483C21.422 30.0084 21.7274 29.2761 21.73 28.5116L21.725 28.5096ZM20.536 28.5096C20.5367 28.7275 20.4942 28.9434 20.4111 29.1449C20.3281 29.3463 20.2059 29.5294 20.0519 29.6834C19.8978 29.8375 19.7147 29.9596 19.5133 30.0427C19.3118 30.1258 19.0959 30.1683 18.878 30.1676C18.4398 30.1627 18.0209 29.9864 17.7111 29.6765C17.4012 29.3666 17.2249 28.9478 17.22 28.5096C17.2146 28.2885 17.2534 28.0686 17.3343 27.8627C17.4151 27.6569 17.5364 27.4693 17.6908 27.311C17.8453 27.1527 18.0298 27.0269 18.2336 26.941C18.4374 26.8551 18.6563 26.8109 18.8775 26.8109C19.0987 26.8109 19.3176 26.8551 19.5214 26.941C19.7252 27.0269 19.9097 27.1527 20.0642 27.311C20.2186 27.4693 20.3399 27.6569 20.4207 27.8627C20.5016 28.0686 20.5404 28.2885 20.535 28.5096H20.536ZM21.725 34.8876C21.725 34.3174 21.5559 33.76 21.2391 33.2859C20.9223 32.8118 20.4721 32.4423 19.9453 32.224C19.4185 32.0058 18.8388 31.9487 18.2795 32.06C17.7203 32.1712 17.2066 32.4458 16.8034 32.849C16.4002 33.2522 16.1256 33.7659 16.0144 34.3251C15.9032 34.8844 15.9603 35.4641 16.1785 35.9909C16.3967 36.5177 16.7662 36.9679 17.2403 37.2847C17.7144 37.6015 18.2718 37.7706 18.842 37.7706C19.6063 37.7698 20.3392 37.4664 20.8804 36.9267C21.4216 36.387 21.7271 35.6549 21.73 34.8906L21.725 34.8876ZM20.536 34.8876C20.5367 35.1055 20.4942 35.3214 20.4111 35.5229C20.3281 35.7243 20.2059 35.9074 20.0519 36.0614C19.8978 36.2155 19.7147 36.3376 19.5133 36.4207C19.3118 36.5038 19.0959 36.5462 18.878 36.5456C18.4398 36.5407 18.0209 36.3644 17.7111 36.0545C17.4012 35.7446 17.2249 35.3258 17.22 34.8876C17.2146 34.6665 17.2534 34.4466 17.3343 34.2407C17.4151 34.0349 17.5364 33.8473 17.6908 33.689C17.8453 33.5307 18.0298 33.4049 18.2336 33.319C18.4374 33.2331 18.6563 33.1889 18.8775 33.1889C19.0987 33.1889 19.3176 33.2331 19.5214 33.319C19.7252 33.4049 19.9097 33.5307 20.0642 33.689C20.2186 33.8473 20.3399 34.0349 20.4207 34.2407C20.5016 34.4466 20.5404 34.6665 20.535 34.8876H20.536ZM21.73 15.7196C21.73 15.1494 21.5609 14.592 21.2441 14.1179C20.9273 13.6438 20.4771 13.2743 19.9503 13.056C19.4235 12.8378 18.8438 12.7807 18.2846 12.892C17.7253 13.0032 17.2116 13.2778 16.8084 13.681C16.4052 14.0842 16.1306 14.5979 16.0194 15.1571C15.9082 15.7164 15.9652 16.2961 16.1834 16.8229C16.4017 17.3497 16.7712 17.7999 17.2453 18.1167C17.7194 18.4335 18.2768 18.6026 18.847 18.6026C19.611 18.6005 20.3431 18.2961 20.8833 17.7558C21.4235 17.2156 21.7279 16.4836 21.73 15.7196ZM20.541 15.7196C20.5417 15.9375 20.4992 16.1534 20.4161 16.3549C20.333 16.5563 20.2109 16.7394 20.0568 16.8934C19.9028 17.0475 19.7197 17.1696 19.5183 17.2527C19.3168 17.3358 19.1009 17.3783 18.883 17.3776C18.5551 17.3776 18.2345 17.2804 17.9619 17.0982C17.6892 16.916 17.4767 16.657 17.3512 16.3541C17.2257 16.0511 17.1929 15.7178 17.2569 15.3961C17.3208 15.0745 17.4787 14.7791 17.7106 14.5472C17.9425 14.3153 18.2379 14.1574 18.5595 14.0934C18.8812 14.0295 19.2145 14.0623 19.5175 14.1878C19.8205 14.3133 20.0794 14.5258 20.2616 14.7985C20.4438 15.0711 20.541 15.3917 20.541 15.7196ZM19.46 7.07059H18.235V11.6476H19.46V7.07059ZM19.46 0.692591H18.235V5.26859H19.46V0.692591ZM27.82 22.1336C27.82 21.5634 27.6509 21.006 27.3341 20.5319C27.0173 20.0578 26.5671 19.6883 26.0403 19.47C25.5135 19.2518 24.9338 19.1947 24.3745 19.306C23.8153 19.4172 23.3016 19.6918 22.8984 20.095C22.4952 20.4982 22.2206 21.0119 22.1094 21.5711C21.9982 22.1304 22.0553 22.7101 22.2735 23.2369C22.4917 23.7637 22.8612 24.2139 23.3353 24.5307C23.8094 24.8475 24.3668 25.0166 24.937 25.0166C25.701 25.0145 26.433 24.7101 26.9733 24.1698C27.5135 23.6296 27.8179 22.8976 27.82 22.1336ZM26.595 22.1336C26.5957 22.3515 26.5532 22.5674 26.4701 22.7689C26.387 22.9703 26.2649 23.1534 26.1108 23.3074C25.9568 23.4615 25.7737 23.5836 25.5723 23.6667C25.3708 23.7498 25.1549 23.7923 24.937 23.7916C24.5045 23.781 24.0932 23.6017 23.791 23.292C23.4889 22.9823 23.3197 22.5668 23.3197 22.1341C23.3197 21.7014 23.4889 21.2859 23.791 20.9762C24.0932 20.6665 24.5045 20.4872 24.937 20.4766C25.1548 20.4759 25.3706 20.5183 25.572 20.6014C25.7734 20.6844 25.9564 20.8064 26.1105 20.9604C26.2646 21.1144 26.3867 21.2973 26.4698 21.4986C26.553 21.7 26.5955 21.9158 26.595 22.1336ZM27.82 28.5116C27.82 27.9414 27.6509 27.384 27.3341 26.9099C27.0173 26.4358 26.5671 26.0663 26.0403 25.848C25.5135 25.6298 24.9338 25.5727 24.3745 25.684C23.8153 25.7952 23.3016 26.0698 22.8984 26.473C22.4952 26.8762 22.2206 27.3899 22.1094 27.9491C21.9982 28.5084 22.0553 29.0881 22.2735 29.6149C22.4917 30.1417 22.8612 30.5919 23.3353 30.9087C23.8094 31.2255 24.3668 31.3946 24.937 31.3946C25.701 31.3925 26.433 31.0881 26.9733 30.5478C27.5135 30.0076 27.8179 29.2756 27.82 28.5116ZM26.595 28.5116C26.5957 28.7295 26.5532 28.9454 26.4701 29.1469C26.387 29.3483 26.2649 29.5314 26.1108 29.6854C25.9568 29.8395 25.7737 29.9616 25.5723 30.0447C25.3708 30.1278 25.1549 30.1703 24.937 30.1696C24.4988 30.1647 24.0799 29.9884 23.7701 29.6785C23.4602 29.3686 23.2839 28.9498 23.279 28.5116C23.2896 28.079 23.4689 27.6678 23.7786 27.3656C24.0883 27.0634 24.5038 26.8943 24.9365 26.8943C25.3692 26.8943 25.7847 27.0634 26.0944 27.3656C26.4041 27.6678 26.5834 28.079 26.594 28.5116H26.595ZM27.82 34.8896C27.82 34.3194 27.6509 33.762 27.3341 33.2879C27.0173 32.8138 26.5671 32.4443 26.0403 32.226C25.5135 32.0078 24.9338 31.9507 24.3745 32.062C23.8153 32.1732 23.3016 32.4478 22.8984 32.851C22.4952 33.2542 22.2206 33.7679 22.1094 34.3271C21.9982 34.8864 22.0553 35.4661 22.2735 35.9929C22.4917 36.5197 22.8612 36.9699 23.3353 37.2867C23.8094 37.6035 24.3668 37.7726 24.937 37.7726C25.7008 37.7705 26.4327 37.4662 26.9729 36.9262C27.5131 36.3862 27.8176 35.6544 27.82 34.8906V34.8896ZM26.595 34.8896C26.5957 35.1075 26.5532 35.3234 26.4701 35.5249C26.387 35.7263 26.2649 35.9094 26.1108 36.0634C25.9568 36.2175 25.7737 36.3396 25.5723 36.4227C25.3708 36.5058 25.1549 36.5482 24.937 36.5476C24.4988 36.5427 24.0799 36.3664 23.7701 36.0565C23.4602 35.7466 23.2839 35.3278 23.279 34.8896C23.2896 34.457 23.4689 34.0458 23.7786 33.7436C24.0883 33.4414 24.5038 33.2723 24.9365 33.2723C25.3692 33.2723 25.7847 33.4414 26.0944 33.7436C26.4041 34.0458 26.5834 34.457 26.594 34.8896H26.595ZM25.55 13.4486H24.325V18.0256H25.55V13.4486ZM27.82 9.34059C27.82 8.77039 27.6509 8.21299 27.3341 7.73888C27.0173 7.26478 26.5671 6.89525 26.0403 6.67705C25.5135 6.45884 24.9338 6.40175 24.3745 6.51299C23.8153 6.62423 23.3016 6.89881 22.8984 7.302C22.4952 7.7052 22.2206 8.2189 22.1094 8.77815C21.9982 9.33739 22.0553 9.91707 22.2735 10.4439C22.4917 10.9707 22.8612 11.4209 23.3353 11.7377C23.8094 12.0545 24.3668 12.2236 24.937 12.2236C25.701 12.2215 26.433 11.9171 26.9733 11.3768C27.5135 10.8366 27.8179 10.1046 27.82 9.34059ZM26.595 9.34059C26.5957 9.55851 26.5532 9.7744 26.4701 9.97586C26.387 10.1773 26.2649 10.3604 26.1108 10.5144C25.9568 10.6685 25.7737 10.7906 25.5723 10.8737C25.3708 10.9568 25.1549 10.9993 24.937 10.9986C24.6091 10.9986 24.2885 10.9014 24.0159 10.7192C23.7432 10.537 23.5307 10.278 23.4052 9.97508C23.2797 9.67212 23.2469 9.33875 23.3109 9.01713C23.3748 8.69551 23.5327 8.40008 23.7646 8.16821C23.9965 7.93633 24.2919 7.77842 24.6135 7.71445C24.9352 7.65048 25.2685 7.68331 25.5715 7.8088C25.8745 7.93429 26.1334 8.1468 26.3156 8.41946C26.4978 8.69211 26.595 9.01267 26.595 9.34059ZM25.55 0.692591H24.325V5.26859H25.55V0.692591ZM37.694 19.8276H36.469V24.4046H37.694V19.8276ZM40 28.5126C40 27.9424 39.8309 27.385 39.5141 26.9109C39.1973 26.4368 38.7471 26.0673 38.2203 25.849C37.6935 25.6308 37.1138 25.5737 36.5546 25.685C35.9953 25.7962 35.4816 26.0708 35.0784 26.474C34.6752 26.8772 34.4006 27.3909 34.2894 27.9501C34.1782 28.5094 34.2352 29.0891 34.4535 29.6159C34.6717 30.1427 35.0412 30.5929 35.5153 30.9097C35.9894 31.2265 36.5468 31.3956 37.117 31.3956C37.8811 31.3935 38.6134 31.0889 39.1536 30.5485C39.6938 30.0081 39.9981 29.2757 40 28.5116V28.5126ZM38.775 28.5126C38.775 28.8405 38.6778 29.1611 38.4956 29.4337C38.3134 29.7064 38.0544 29.9189 37.7515 30.0444C37.4485 30.1699 37.1152 30.2027 36.7935 30.1387C36.4719 30.0748 36.1765 29.9169 35.9446 29.685C35.7127 29.4531 35.5548 29.1577 35.4909 28.8361C35.4269 28.5144 35.4597 28.1811 35.5852 27.8781C35.7107 27.5751 35.9232 27.3162 36.1959 27.134C36.4685 26.9518 36.7891 26.8546 37.117 26.8546C37.3357 26.8509 37.5528 26.8913 37.7555 26.9733C37.9583 27.0552 38.1425 27.1771 38.2972 27.3317C38.4518 27.4863 38.5738 27.6704 38.6559 27.8731C38.738 28.0758 38.7785 28.2929 38.775 28.5116V28.5126ZM40 34.8906C40 34.3204 39.8309 33.763 39.5141 33.2889C39.1973 32.8148 38.7471 32.4453 38.2203 32.227C37.6935 32.0088 37.1138 31.9517 36.5546 32.063C35.9953 32.1742 35.4816 32.4488 35.0784 32.852C34.6752 33.2552 34.4006 33.7689 34.2894 34.3281C34.1782 34.8874 34.2352 35.4671 34.4535 35.9939C34.6717 36.5207 35.0412 36.9709 35.5153 37.2877C35.9894 37.6045 36.5468 37.7736 37.117 37.7736C37.881 37.7715 38.613 37.4671 39.1533 36.9268C39.6935 36.3866 39.9979 35.6546 40 34.8906ZM38.775 34.8906C38.775 35.2185 38.6778 35.5391 38.4956 35.8117C38.3134 36.0844 38.0544 36.2969 37.7515 36.4224C37.4485 36.5479 37.1152 36.5807 36.7935 36.5167C36.4719 36.4528 36.1765 36.2948 35.9446 36.063C35.7127 35.8311 35.5548 35.5357 35.4909 35.2141C35.4269 34.8924 35.4597 34.5591 35.5852 34.2561C35.7107 33.9531 35.9232 33.6942 36.1959 33.512C36.4685 33.3298 36.7891 33.2326 37.117 33.2326C37.3357 33.2289 37.553 33.2693 37.7558 33.3514C37.9586 33.4334 38.1428 33.5554 38.2975 33.7101C38.4522 33.8648 38.5742 34.049 38.6562 34.2518C38.7383 34.4546 38.7787 34.6719 38.775 34.8906ZM40 15.7196C40 15.1494 39.8309 14.592 39.5141 14.1179C39.1973 13.6438 38.7471 13.2743 38.2203 13.056C37.6935 12.8378 37.1138 12.7807 36.5546 12.892C35.9953 13.0032 35.4816 13.2778 35.0784 13.681C34.6752 14.0842 34.4006 14.5979 34.2894 15.1571C34.1782 15.7164 34.2352 16.2961 34.4535 16.8229C34.6717 17.3497 35.0412 17.7999 35.5153 18.1167C35.9894 18.4335 36.5468 18.6026 37.117 18.6026C37.881 18.6005 38.613 18.2961 39.1533 17.7558C39.6935 17.2156 39.9979 16.4836 40 15.7196ZM38.775 15.7196C38.7644 16.1521 38.5851 16.5634 38.2754 16.8656C37.9657 17.1677 37.5502 17.3369 37.1175 17.3369C36.6848 17.3369 36.2693 17.1677 35.9596 16.8656C35.6499 16.5634 35.4706 16.1521 35.46 15.7196C35.4706 15.287 35.6499 14.8758 35.9596 14.5736C36.2693 14.2714 36.6848 14.1023 37.1175 14.1023C37.5502 14.1023 37.9657 14.2714 38.2754 14.5736C38.5851 14.8758 38.7644 15.287 38.775 15.7196ZM37.694 7.07059H36.469V11.6476H37.694V7.07059ZM37.694 0.692591H36.469V5.26859H37.694V0.692591ZM9.58599 22.1336C9.58599 21.5634 9.41691 21.006 9.10012 20.5319C8.78333 20.0578 8.33308 19.6883 7.80628 19.47C7.27948 19.2518 6.6998 19.1947 6.14056 19.306C5.58131 19.4172 5.0676 19.6918 4.66441 20.095C4.26121 20.4982 3.98663 21.0119 3.87539 21.5711C3.76415 22.1304 3.82124 22.7101 4.03945 23.2369C4.25766 23.7637 4.62719 24.2139 5.1013 24.5307C5.5754 24.8475 6.13279 25.0166 6.703 25.0166C7.46697 25.0145 8.19904 24.7101 8.73925 24.1698C9.27946 23.6296 9.58388 22.8976 9.58599 22.1336ZM8.361 22.1336C8.35038 22.5661 8.17108 22.9774 7.8614 23.2796C7.55171 23.5817 7.13618 23.7509 6.7035 23.7509C6.27082 23.7509 5.85528 23.5817 5.5456 23.2796C5.23592 22.9774 5.05662 22.5661 5.046 22.1336C5.05195 21.6968 5.22812 21.2795 5.53703 20.9706C5.84593 20.6617 6.26319 20.4855 6.7 20.4796C6.91857 20.4757 7.13567 20.5157 7.33845 20.5974C7.54122 20.6791 7.72551 20.8007 7.88036 20.955C8.03522 21.1092 8.15748 21.2931 8.23988 21.4956C8.32227 21.698 8.36311 21.915 8.35999 22.1336H8.361ZM7.316 26.2056H6.09V30.7796H7.31499L7.316 26.2056ZM7.316 32.6196H6.09V37.1966H7.31499L7.316 32.6196ZM9.58599 15.7196C9.58599 15.1494 9.41691 14.592 9.10012 14.1179C8.78333 13.6438 8.33308 13.2743 7.80628 13.056C7.27948 12.8378 6.6998 12.7807 6.14056 12.892C5.58131 13.0032 5.0676 13.2778 4.66441 13.681C4.26121 14.0842 3.98663 14.5979 3.87539 15.1571C3.76415 15.7164 3.82124 16.2961 4.03945 16.8229C4.25766 17.3497 4.62719 17.7999 5.1013 18.1167C5.5754 18.4335 6.13279 18.6026 6.703 18.6026C7.46697 18.6005 8.19904 18.2961 8.73925 17.7558C9.27946 17.2156 9.58388 16.4836 9.58599 15.7196ZM8.361 15.7196C8.35038 16.1521 8.17108 16.5634 7.8614 16.8656C7.55171 17.1677 7.13618 17.3369 6.7035 17.3369C6.27082 17.3369 5.85528 17.1677 5.5456 16.8656C5.23592 16.5634 5.05662 16.1521 5.046 15.7196C5.05662 15.287 5.23592 14.8758 5.5456 14.5736C5.85528 14.2714 6.27082 14.1023 6.7035 14.1023C7.13618 14.1023 7.55171 14.2714 7.8614 14.5736C8.17108 14.8758 8.35038 15.287 8.361 15.7196ZM7.316 7.07059H6.09V11.6476H7.31499L7.316 7.07059ZM9.58599 2.96259C9.58599 2.39252 9.41699 1.83524 9.10033 1.36119C8.78368 0.887153 8.33359 0.51763 7.80697 0.299335C7.28034 0.0810393 6.70082 0.0237714 6.14165 0.13477C5.58249 0.245768 5.06879 0.520049 4.66547 0.922944C4.26216 1.32584 3.98733 1.83926 3.87576 2.39831C3.76418 2.95736 3.82085 3.53694 4.0386 4.06379C4.25634 4.59064 4.6254 5.04111 5.09911 5.35826C5.57283 5.67541 6.12993 5.845 6.7 5.84559C7.46449 5.84427 8.19734 5.5402 8.7382 4.9999C9.27906 4.45961 9.58388 3.72708 9.58599 2.96259ZM8.361 2.96259C8.35038 3.39514 8.17108 3.8064 7.8614 4.10857C7.55171 4.41074 7.13618 4.57988 6.7035 4.57988C6.27082 4.57988 5.85528 4.41074 5.5456 4.10857C5.23592 3.8064 5.05662 3.39514 5.046 2.96259C5.05662 2.53004 5.23592 2.11879 5.5456 1.81662C5.85528 1.51445 6.27082 1.34531 6.7035 1.34531C7.13618 1.34531 7.55171 1.51445 7.8614 1.81662C8.17108 2.11879 8.35038 2.53004 8.361 2.96259ZM15.676 22.1336C15.676 21.5634 15.5069 21.006 15.1901 20.5319C14.8733 20.0578 14.4231 19.6883 13.8963 19.47C13.3695 19.2518 12.7898 19.1947 12.2306 19.306C11.6713 19.4172 11.1576 19.6918 10.7544 20.095C10.3512 20.4982 10.0766 21.0119 9.9654 21.5711C9.85416 22.1304 9.91124 22.7101 10.1294 23.2369C10.3477 23.7637 10.7172 24.2139 11.1913 24.5307C11.6654 24.8475 12.2228 25.0166 12.793 25.0166C13.557 25.0145 14.2891 24.7101 14.8293 24.1698C15.3695 23.6296 15.6739 22.8976 15.676 22.1336ZM14.451 22.1336C14.4404 22.5661 14.2611 22.9774 13.9514 23.2796C13.6417 23.5817 13.2262 23.7509 12.7935 23.7509C12.3608 23.7509 11.9453 23.5817 11.6356 23.2796C11.3259 22.9774 11.1466 22.5661 11.136 22.1336C11.1409 21.6954 11.3172 21.2765 11.6271 20.9667C11.9369 20.6568 12.3558 20.4805 12.794 20.4756C13.0126 20.4722 13.2296 20.5128 13.4322 20.595C13.6347 20.6771 13.8187 20.7991 13.9732 20.9538C14.1277 21.1085 14.2495 21.2926 14.3314 21.4953C14.4133 21.698 14.4536 21.915 14.45 22.1336H14.451ZM13.37 26.2056H12.145V30.7796H13.37V26.2056ZM13.37 32.6196H12.145V37.1966H13.37V32.6196ZM13.37 13.4486H12.145V18.0256H13.37V13.4486ZM15.676 9.34059C15.676 8.77039 15.5069 8.21299 15.1901 7.73888C14.8733 7.26478 14.4231 6.89525 13.8963 6.67705C13.3695 6.45884 12.7898 6.40175 12.2306 6.51299C11.6713 6.62423 11.1576 6.89881 10.7544 7.302C10.3512 7.7052 10.0766 8.2189 9.9654 8.77815C9.85416 9.33739 9.91124 9.91707 10.1294 10.4439C10.3477 10.9707 10.7172 11.4209 11.1913 11.7377C11.6654 12.0545 12.2228 12.2236 12.793 12.2236C13.557 12.2215 14.2891 11.9171 14.8293 11.3768C15.3695 10.8366 15.6739 10.1046 15.676 9.34059ZM14.451 9.34059C14.4404 9.77314 14.2611 10.1844 13.9514 10.4866C13.6417 10.7887 13.2262 10.9579 12.7935 10.9579C12.3608 10.9579 11.9453 10.7887 11.6356 10.4866C11.3259 10.1844 11.1466 9.77314 11.136 9.34059C11.1466 8.90804 11.3259 8.49679 11.6356 8.19462C11.9453 7.89245 12.3608 7.72331 12.7935 7.72331C13.2262 7.72331 13.6417 7.89245 13.9514 8.19462C14.2611 8.49679 14.4404 8.90804 14.451 9.34059ZM15.676 2.96259C15.676 2.39239 15.5069 1.83499 15.1901 1.36088C14.8733 0.886775 14.4231 0.517254 13.8963 0.299046C13.3695 0.080839 12.7898 0.023746 12.2306 0.134987C11.6713 0.246228 11.1576 0.520808 10.7544 0.924002C10.3512 1.3272 10.0766 1.8409 9.9654 2.40015C9.85416 2.95939 9.91124 3.53907 10.1294 4.06587C10.3477 4.59267 10.7172 5.04293 11.1913 5.35972C11.6654 5.67651 12.2228 5.84559 12.793 5.84559C13.557 5.84348 14.2891 5.53906 14.8293 4.99885C15.3695 4.45864 15.6739 3.72656 15.676 2.96259ZM14.451 2.96259C14.4404 3.39514 14.2611 3.8064 13.9514 4.10857C13.6417 4.41074 13.2262 4.57988 12.7935 4.57988C12.3608 4.57988 11.9453 4.41074 11.6356 4.10857C11.3259 3.8064 11.1466 3.39514 11.136 2.96259C11.1466 2.53004 11.3259 2.11879 11.6356 1.81662C11.9453 1.51445 12.3608 1.34531 12.7935 1.34531C13.2262 1.34531 13.6417 1.51445 13.9514 1.81662C14.2611 2.11879 14.4404 2.53004 14.451 2.96259ZM33.91 22.1336C33.91 21.5634 33.7409 21.006 33.4241 20.5319C33.1073 20.0578 32.6571 19.6883 32.1303 19.47C31.6035 19.2518 31.0238 19.1947 30.4645 19.306C29.9053 19.4172 29.3916 19.6918 28.9884 20.095C28.5852 20.4982 28.3106 21.0119 28.1994 21.5711C28.0882 22.1304 28.1452 22.7101 28.3635 23.2369C28.5817 23.7637 28.9512 24.2139 29.4253 24.5307C29.8994 24.8475 30.4568 25.0166 31.027 25.0166C31.791 25.0145 32.523 24.7101 33.0633 24.1698C33.6035 23.6296 33.9079 22.8976 33.91 22.1336ZM32.685 22.1336C32.6857 22.3515 32.6432 22.5674 32.5601 22.7689C32.4771 22.9703 32.3549 23.1534 32.2009 23.3074C32.0468 23.4615 31.8637 23.5836 31.6623 23.6667C31.4608 23.7498 31.2449 23.7923 31.027 23.7916C30.8059 23.797 30.586 23.7582 30.3801 23.6773C30.1743 23.5965 29.9867 23.4752 29.8284 23.3208C29.6701 23.1663 29.5443 22.9818 29.4584 22.778C29.3725 22.5742 29.3283 22.3553 29.3283 22.1341C29.3283 21.9129 29.3725 21.694 29.4584 21.4902C29.5443 21.2864 29.6701 21.1019 29.8284 20.9474C29.9867 20.7929 30.1743 20.6717 30.3801 20.5909C30.586 20.51 30.8059 20.4712 31.027 20.4766C31.2448 20.4759 31.4606 20.5183 31.662 20.6014C31.8634 20.6844 32.0464 20.8064 32.2005 20.9604C32.3546 21.1144 32.4767 21.2973 32.5599 21.4986C32.643 21.7 32.6855 21.9158 32.685 22.1336ZM33.91 28.5116C33.91 27.9414 33.7409 27.384 33.4241 26.9099C33.1073 26.4358 32.6571 26.0663 32.1303 25.848C31.6035 25.6298 31.0238 25.5727 30.4645 25.684C29.9053 25.7952 29.3916 26.0698 28.9884 26.473C28.5852 26.8762 28.3106 27.3899 28.1994 27.9491C28.0882 28.5084 28.1452 29.0881 28.3635 29.6149C28.5817 30.1417 28.9512 30.5919 29.4253 30.9087C29.8994 31.2255 30.4568 31.3946 31.027 31.3946C31.791 31.3925 32.523 31.0881 33.0633 30.5478C33.6035 30.0076 33.9079 29.2756 33.91 28.5116ZM32.685 28.5116C32.6857 28.7295 32.6432 28.9454 32.5601 29.1469C32.4771 29.3483 32.3549 29.5314 32.2009 29.6854C32.0468 29.8395 31.8637 29.9616 31.6623 30.0447C31.4608 30.1278 31.2449 30.1703 31.027 30.1696C30.5888 30.1647 30.1699 29.9884 29.8601 29.6785C29.5502 29.3686 29.3739 28.9498 29.369 28.5116C29.3796 28.079 29.5589 27.6678 29.8686 27.3656C30.1783 27.0634 30.5938 26.8943 31.0265 26.8943C31.4592 26.8943 31.8747 27.0634 32.1844 27.3656C32.4941 27.6678 32.6734 28.079 32.684 28.5116H32.685ZM33.91 34.8896C33.91 34.3194 33.7409 33.762 33.4241 33.2879C33.1073 32.8138 32.6571 32.4443 32.1303 32.226C31.6035 32.0078 31.0238 31.9507 30.4645 32.062C29.9053 32.1732 29.3916 32.4478 28.9884 32.851C28.5852 33.2542 28.3106 33.7679 28.1994 34.3271C28.0882 34.8864 28.1452 35.4661 28.3635 35.9929C28.5817 36.5197 28.9512 36.9699 29.4253 37.2867C29.8994 37.6035 30.4568 37.7726 31.027 37.7726C31.7908 37.7705 32.5227 37.4662 33.0629 36.9262C33.6031 36.3862 33.9076 35.6544 33.91 34.8906V34.8896ZM32.685 34.8896C32.6857 35.1075 32.6432 35.3234 32.5601 35.5249C32.4771 35.7263 32.3549 35.9094 32.2009 36.0634C32.0468 36.2175 31.8637 36.3396 31.6623 36.4227C31.4608 36.5058 31.2449 36.5482 31.027 36.5476C30.5888 36.5427 30.1699 36.3664 29.8601 36.0565C29.5502 35.7466 29.3739 35.3278 29.369 34.8896C29.3796 34.457 29.5589 34.0458 29.8686 33.7436C30.1783 33.4414 30.5938 33.2723 31.0265 33.2723C31.4592 33.2723 31.8747 33.4414 32.1844 33.7436C32.4941 34.0458 32.6734 34.457 32.684 34.8896H32.685ZM33.91 15.7196C33.91 15.1494 33.7409 14.592 33.4241 14.1179C33.1073 13.6438 32.6571 13.2743 32.1303 13.056C31.6035 12.8378 31.0238 12.7807 30.4645 12.892C29.9053 13.0032 29.3916 13.2778 28.9884 13.681C28.5852 14.0842 28.3106 14.5979 28.1994 15.1571C28.0882 15.7164 28.1452 16.2961 28.3635 16.8229C28.5817 17.3497 28.9512 17.7999 29.4253 18.1167C29.8994 18.4335 30.4568 18.6026 31.027 18.6026C31.791 18.6005 32.523 18.2961 33.0633 17.7558C33.6035 17.2156 33.9079 16.4836 33.91 15.7196ZM32.685 15.7196C32.6857 15.9375 32.6432 16.1534 32.5601 16.3549C32.4771 16.5563 32.3549 16.7394 32.2009 16.8934C32.0468 17.0475 31.8637 17.1696 31.6623 17.2527C31.4608 17.3358 31.2449 17.3783 31.027 17.3776C30.6991 17.3776 30.3785 17.2804 30.1059 17.0982C29.8332 16.916 29.6207 16.657 29.4952 16.3541C29.3697 16.0511 29.3369 15.7178 29.4009 15.3961C29.4648 15.0745 29.6227 14.7791 29.8546 14.5472C30.0865 14.3153 30.3819 14.1574 30.7035 14.0934C31.0252 14.0295 31.3585 14.0623 31.6615 14.1878C31.9645 14.3133 32.2234 14.5258 32.4056 14.7985C32.5878 15.0711 32.685 15.3917 32.685 15.7196ZM33.91 9.34159C33.91 8.77139 33.7409 8.21399 33.4241 7.73988C33.1073 7.26578 32.6571 6.89625 32.1303 6.67805C31.6035 6.45984 31.0238 6.40275 30.4645 6.51399C29.9053 6.62523 29.3916 6.89981 28.9884 7.303C28.5852 7.7062 28.3106 8.2199 28.1994 8.77915C28.0882 9.33839 28.1452 9.91807 28.3635 10.4449C28.5817 10.9717 28.9512 11.4219 29.4253 11.7387C29.8994 12.0555 30.4568 12.2246 31.027 12.2246C31.7911 12.2225 32.5234 11.9179 33.0636 11.3775C33.6038 10.8371 33.9081 10.1047 33.91 9.34059V9.34159ZM32.685 9.34159C32.6857 9.55951 32.6432 9.7754 32.5601 9.97686C32.4771 10.1783 32.3549 10.3614 32.2009 10.5154C32.0468 10.6695 31.8637 10.7916 31.6623 10.8747C31.4608 10.9578 31.2449 11.0003 31.027 10.9996C30.6991 10.9996 30.3785 10.9024 30.1059 10.7202C29.8332 10.538 29.6207 10.279 29.4952 9.97608C29.3697 9.67312 29.3369 9.33975 29.4009 9.01813C29.4648 8.69651 29.6227 8.40108 29.8546 8.16921C30.0865 7.93733 30.3819 7.77942 30.7035 7.71545C31.0252 7.65147 31.3585 7.68431 31.6615 7.8098C31.9645 7.93529 32.2234 8.1478 32.4056 8.42045C32.5878 8.69311 32.685 9.01367 32.685 9.34159ZM33.91 2.96359C33.91 2.39339 33.7409 1.83599 33.4241 1.36188C33.1073 0.887775 32.6571 0.518254 32.1303 0.300046C31.6035 0.081839 31.0238 0.024746 30.4645 0.135987C29.9053 0.247228 29.3916 0.521807 28.9884 0.925002C28.5852 1.3282 28.3106 1.8419 28.1994 2.40115C28.0882 2.96039 28.1452 3.54007 28.3635 4.06687C28.5817 4.59367 28.9512 5.04393 29.4253 5.36072C29.8994 5.67751 30.4568 5.84659 31.027 5.84659C31.7911 5.84448 32.5234 5.53992 33.0636 4.99949C33.6038 4.45907 33.9081 3.72673 33.91 2.96259V2.96359ZM32.685 2.96359C32.6857 3.18151 32.6432 3.3974 32.5601 3.59886C32.4771 3.80032 32.3549 3.98336 32.2009 4.13745C32.0468 4.29154 31.8637 4.41364 31.6623 4.49673C31.4608 4.57982 31.2449 4.62225 31.027 4.62159C30.5888 4.61665 30.1699 4.44039 29.8601 4.13052C29.5502 3.82064 29.3739 3.40179 29.369 2.96359C29.3796 2.53104 29.5589 2.11979 29.8686 1.81762C30.1783 1.51545 30.5938 1.34631 31.0265 1.34631C31.4592 1.34631 31.8747 1.51545 32.1844 1.81762C32.4941 2.11979 32.6734 2.53104 32.684 2.96359H32.685Z" fill="#20DFA6"/>
</g>
<defs>
<clipPath id="clip0">
<rect width="40" height="37.694" fill="white" transform="translate(0 0.0795898)"/>
</clipPath>
</defs>
</svg>
